0 info it worked if it ends with ok
1 verbose cli [ 'C:\\Program Files\\nodejs\\node.exe',
1 verbose cli   'C:\\Program Files\\nodejs\\node_modules\\npm\\bin\\npm-cli.js',
1 verbose cli   'run',
1 verbose cli   'build' ]
2 info using npm@3.10.10
3 info using node@v6.11.1
4 verbose run-script [ 'prebuild', 'build', 'postbuild' ]
5 info lifecycle swapcard-react-ui@1.0.0~prebuild: swapcard-react-ui@1.0.0
6 silly lifecycle swapcard-react-ui@1.0.0~prebuild: no script for prebuild, continuing
7 info lifecycle swapcard-react-ui@1.0.0~build: swapcard-react-ui@1.0.0
8 verbose lifecycle swapcard-react-ui@1.0.0~build: unsafe-perm in lifecycle true
9 verbose lifecycle swapcard-react-ui@1.0.0~build: PATH: C:\Program Files\nodejs\node_modules\npm\bin\node-gyp-bin;C:\DEV2\swapcard-react-ui\node_modules\.bin;C:\Users\Theo\bin;C:\Users\Theo\AppData\Local\Atlassian\SourceTree\git_local\mingw32\bin;C:\Users\Theo\AppData\Local\Atlassian\SourceTree\git_local\usr\local\bin;C:\Users\Theo\AppData\Local\Atlassian\SourceTree\git_local\usr\bin;C:\Users\Theo\AppData\Local\Atlassian\SourceTree\git_local\usr\bin;C:\Users\Theo\AppData\Local\Atlassian\SourceTree\git_local\mingw32\bin;C:\Users\Theo\AppData\Local\Atlassian\SourceTree\git_local\usr\bin;C:\Users\Theo\bin;C:\Users\Theo\AppData\Local\SourceTree\app-2.1.8\lib\win32\x64;C:\Python27;C:\Python27\Scripts;C:\ProgramData\Oracle\Java\javapath;C:\Program Files (x86)\Intel\iCLS Client;C:\Program Files\Intel\iCLS Client;C:\Windows\system32;C:\Windows;C:\Windows\System32\Wbem;C:\Windows\System32\WindowsPowerShell\v1.0;C:\Program Files\Intel\Intel(R) Management Engine Components\DAL;C:\Program Files\Intel\Intel(R) Management Engine Components\IPT;C:\Program Files (x86)\Intel\Intel(R) Management Engine Components\DAL;C:\Program Files (x86)\Intel\Intel(R) Management Engine Components\IPT;C:\Program Files\Condusiv Technologies\ExpressCache;C:\Program Files (x86)\NVIDIA Corporation\PhysX\Common;C:\ProgramData\ComposerSetup\bin;C:\Program Files (x86)\QuickTime\QTSystem;C:\Program Files (x86)\Windows Live\Shared;C:\Program Files (x86)\Skype\Phone;C:\Program Files\MongoDB\Server\3.4\bin;C:\ProgramData\chocolatey\bin;C:\Program Files (x86)\Yarn\bin;C:\Program Files\nodejs;C:\Program Files\PuTTY;C:\DEV\wamp64\bin\php\php7.0.10;C:\Users\Theo\.babun;C:\Users\Theo\AppData\Local\Yarn\bin;C:\Program Files\nodejs;C:\Users\Theo\AppData\Roaming\npm;C:\Users\Theo\AppData\Local\Atlassian\SourceTree\git_local\usr\bin\vendor_perl;C:\Users\Theo\AppData\Local\Atlassian\SourceTree\git_local\usr\bin\core_perl
10 verbose lifecycle swapcard-react-ui@1.0.0~build: CWD: C:\DEV2\swapcard-react-ui
11 silly lifecycle swapcard-react-ui@1.0.0~build: Args: [ '/d /s /c', 'babel src/ -d lib/' ]
12 silly lifecycle swapcard-react-ui@1.0.0~build: Returned: code: 1  signal: null
13 info lifecycle swapcard-react-ui@1.0.0~build: Failed to exec build script
14 verbose stack Error: swapcard-react-ui@1.0.0 build: `babel src/ -d lib/`
14 verbose stack Exit status 1
14 verbose stack     at EventEmitter.<anonymous> (C:\Program Files\nodejs\node_modules\npm\lib\utils\lifecycle.js:255:16)
14 verbose stack     at emitTwo (events.js:106:13)
14 verbose stack     at EventEmitter.emit (events.js:191:7)
14 verbose stack     at ChildProcess.<anonymous> (C:\Program Files\nodejs\node_modules\npm\lib\utils\spawn.js:40:14)
14 verbose stack     at emitTwo (events.js:106:13)
14 verbose stack     at ChildProcess.emit (events.js:191:7)
14 verbose stack     at maybeClose (internal/child_process.js:891:16)
14 verbose stack     at Process.ChildProcess._handle.onexit (internal/child_process.js:226:5)
15 verbose pkgid swapcard-react-ui@1.0.0
16 verbose cwd C:\DEV2\swapcard-react-ui
17 error Windows_NT 6.3.9600
18 error argv "C:\\Program Files\\nodejs\\node.exe" "C:\\Program Files\\nodejs\\node_modules\\npm\\bin\\npm-cli.js" "run" "build"
19 error node v6.11.1
20 error npm  v3.10.10
21 error code ELIFECYCLE
22 error swapcard-react-ui@1.0.0 build: `babel src/ -d lib/`
22 error Exit status 1
23 error Failed at the swapcard-react-ui@1.0.0 build script 'babel src/ -d lib/'.
23 error Make sure you have the latest version of node.js and npm installed.
23 error If you do, this is most likely a problem with the swapcard-react-ui package,
23 error not with npm itself.
23 error Tell the author that this fails on your system:
23 error     babel src/ -d lib/
23 error You can get information on how to open an issue for this project with:
23 error     npm bugs swapcard-react-ui
23 error Or if that isn't available, you can get their info via:
23 error     npm owner ls swapcard-react-ui
23 error There is likely additional logging output above.
24 verbose exit [ 1, true ]
